src/reader/reader_tb.vcd
$date
	Wed Aug 14 09:59:20 2024
$end
$version
	Icarus Verilog
$end
$timescale
	1s
$end
$scope module reader_tb $end
$var wire 8 ! reader4_out [7:0] $end
$var wire 8 " reader3_out [7:0] $end
$var wire 8 # reader2_out [7:0] $end
$var wire 8 $ reader1_out [7:0] $end
$var reg 8 % braille_out [7:0] $end
$var reg 8 & braille_size [7:0] $end
$var reg 1 ' braille_valid $end
$var reg 1 ( clk $end
$var reg 1 ) next $end
$var reg 1 * reset $end
$scope module uut $end
$var wire 8 + braille_out [7:0] $end
$var wire 8 , braille_size [7:0] $end
$var wire 1 ' braille_valid $end
$var wire 1 ( clk $end
$var wire 1 ) next $end
$var wire 1 * reset $end
$var parameter 3 - END_SIGNAL $end
$var parameter 3 . IDLE $end
$var parameter 3 / LOADING $end
$var parameter 3 0 SENDING $end
$var parameter 3 1 START_SIGNAL $end
$var parameter 3 2 WAIT_NEXT $end
$var reg 8 3 buffer_index [7:0] $end
$var reg 8 4 loaded_braille_size [7:0] $end
$var reg 3 5 next_state [2:0] $end
$var reg 1 6 next_sync $end
$var reg 8 7 read_addr [7:0] $end
$var reg 8 8 reader1_out [7:0] $end
$var reg 8 9 reader2_out [7:0] $end
$var reg 8 : reader3_out [7:0] $end
$var reg 8 ; reader4_out [7:0] $end
$var reg 3 < state [2:0] $end
$var integer 32 = i [31:0] $end
$upscope $end
$upscope $end
$enddefinitions $end
$comment Show the parameter values. $end
$dumpall
b100 2
b10 1
b11 0
b1 /
b0 .
b101 -
$end
#0
$dumpvars
bx =
bx <
bx ;
bx :
bx 9
bx 8
bx 7
x6
b0 5
bx 4
bx 3
b0 ,
b0 +
1*
0)
0(
0'
b0 &
b0 %
bx $
bx #
bx "
bx !
$end
#5
06
b0 <
1(
#10
b0 !
b0 ;
b0 "
b0 :
b0 #
b0 9
b0 $
b0 8
b0 4
b0 7
b0 3
b100000000 =
0(
0*
#15
b100000000 =
1(
#20
b1 5
0(
b110000 %
b110000 +
1'
b10000 &
b10000 ,
1*
#25
b10000 4
b1 <
1(
#30
0(
b110001 %
b110001 +
#35
b1 3
1(
#40
0(
b110010 %
b110010 +
#45
b10 3
1(
#50
0(
b110011 %
b110011 +
#55
b11 3
1(
#60
0(
b110100 %
b110100 +
#65
b100 3
1(
#70
0(
b110101 %
b110101 +
#75
b101 3
1(
#80
0(
b110110 %
b110110 +
#85
b110 3
1(
#90
0(
b110111 %
b110111 +
#95
b111 3
1(
#100
0(
b111000 %
b111000 +
#105
b1000 3
1(
#110
0(
b111001 %
b111001 +
#115
b1001 3
1(
#120
0(
b111010 %
b111010 +
#125
b1010 3
1(
#130
0(
b111011 %
b111011 +
#135
b1011 3
1(
#140
0(
b111100 %
b111100 +
#145
b1100 3
1(
#150
0(
b111101 %
b111101 +
#155
b1101 3
1(
#160
0(
b111110 %
b111110 +
#165
b1110 3
1(
#170
0(
b111111 %
b111111 +
#175
b1111 3
1(
#180
0(
0'
#185
1(
#190
0(
#195
1(
#200
0(
1)
#205
16
1(
#210
0(
0)
#215
06
1(
#220
0(
#225
1(
#230
0(
#235
1(
#240
0(
1)
#245
16
1(
#250
0(
0)
#255
06
1(
#260
0(
#265
1(
#270
0(
#275
1(
#280
0(
1)
#285
16
1(
#290
0(
0)
#295
06
1(
#300
0(
#305
1(
#310
0(
#315
1(
#320
0(
1)
#325
16
1(
#330
0(
0)
#335
06
1(
#340
0(
#345
1(
#350
0(
#355
1(
#360
0(
1)
#365
16
1(
#370
0(
0)
#375
06
1(
